# Mode = scaling
# L = 5
# h = 0.001000
# nsm = 4000
# nss = 2000
# nsw = 10
# mdisp = 0.000000
# scale = 1.000100
# ti = 0.300000
# tf = 0.900000
# ts = 0.010000


# heating
0.050132	27.447246	-2243.366821	-2215.919575	5.225031	-0.000000	-0.000000	-0.000000
0.065954	36.109736	-2259.376133	-2223.266397	5.404753	0.000000	-0.000000	-0.000000
0.041030	22.464041	-2217.343701	-2194.879660	5.423920	0.000000	-0.000000	-0.000000
0.084396	46.206828	-2203.404835	-2157.198008	5.423008	0.000000	-0.000000	-0.000000
0.107332	58.764168	-2206.619725	-2147.855557	5.367166	0.000000	-0.000000	-0.000000
0.114277	62.566610	-2206.946472	-2144.379862	5.530522	0.000000	-0.000000	-0.000000
0.143291	78.451643	-2172.333038	-2093.881395	5.517264	0.000000	-0.000000	-0.000000
0.175098	95.866085	-2171.774024	-2075.907939	5.504282	0.000000	-0.000000	-0.000000
0.214574	117.479328	-2149.179133	-2031.699806	5.477475	0.000000	-0.000000	-0.000000
0.250857	137.344409	-2116.562949	-1979.218540	5.616502	0.000000	-0.000000	-0.000000


# cooling
0.207955	113.855323	-2148.356153	-2034.500830	5.495819	0.000000	-0.000000	-0.000000


# heating
0.268873	147.207737	-2107.070204	-1959.862467	5.521347	0.000000	-0.000000	-0.000000
0.317215	173.675440	-2065.677253	-1892.001813	5.079712	0.000000	-0.000000	-0.000000
0.360951	197.620552	-2018.088155	-1820.467603	5.466455	0.000000	-0.000000	-0.000000
0.401502	219.822223	-1963.169729	-1743.347506	5.345935	0.000000	-0.000000	-0.000000
0.443255	242.682232	-1924.418258	-1681.736025	5.276201	0.000000	-0.000000	-0.000000
0.463906	253.988618	-1860.789251	-1606.800632	5.236696	0.000000	-0.000000	-0.000000
0.475824	260.513887	-1803.110661	-1542.596774	5.352430	0.000000	-0.000000	-0.000000
0.510732	279.625581	-1755.923403	-1476.297822	11.878343	0.000000	-0.000000	-0.000000
0.545382	298.596721	-1708.339043	-1409.742322	37.290351	0.000000	-0.000000	-0.000000
0.596721	326.704785	-1668.213573	-1341.508787	65.394903	0.000000	-0.000000	-0.000000
0.604006	330.693041	-1605.564209	-1274.871168	95.322632	0.000000	-0.000000	-0.000000
0.645139	353.213515	-1559.616813	-1206.403297	128.414346	0.000000	-0.000000	-0.000000
0.666476	364.895464	-1508.822002	-1143.926538	163.928384	0.000000	-0.000000	-0.000000
0.661601	362.226712	-1442.530905	-1080.304192	202.469986	0.000000	0.000000	-0.000000
0.695665	380.876710	-1393.073069	-1012.196359	245.044975	-0.000000	0.000000	-0.000000
0.743563	407.100539	-1354.137068	-947.036529	290.905358	-0.000000	0.000000	-0.000000
0.777720	425.801631	-1307.006513	-881.204882	339.841416	0.000000	0.000000	-0.000000
0.808987	442.920195	-1254.103665	-811.183469	392.456570	-0.000000	0.000000	-0.000000
0.868417	475.458483	-1216.410504	-740.952022	449.179756	-0.000000	0.000000	-0.000000
0.916872	501.987686	-1176.817131	-674.829445	509.716749	-0.000000	0.000000	-0.000000

# EOF
